%YAML 1.1
%TAG !u! tag:unity3d.com,2011:
--- !u!1001 &100100000
Prefab:
  m_ObjectHideFlags: 1
  serializedVersion: 2
  m_Modification:
    m_TransformParent: {fileID: 0}
    m_Modifications: []
    m_RemovedComponents: []
  m_ParentPrefab: {fileID: 0}
  m_RootGameObject: {fileID: 1146265781652334}
  m_IsPrefabParent: 1
--- !u!1 &1146265781652334
GameObject:
  m_ObjectHideFlags: 0
  m_PrefabParentObject: {fileID: 0}
  m_PrefabInternal: {fileID: 100100000}
  serializedVersion: 5
  m_Component:
  - component: {fileID: 4752708404206588}
  - component: {fileID: 23662768120792108}
  - component: {fileID: 33093827512597710}
  - component: {fileID: 114670960469794244}
  m_Layer: 0
  m_Name: Water2D_Flat
  m_TagString: Untagged
  m_Icon: {fileID: 0}
  m_NavMeshLayer: 0
  m_StaticEditorFlags: 0
  m_IsActive: 1
--- !u!4 &4752708404206588
Transform:
  m_ObjectHideFlags: 1
  m_PrefabParentObject: {fileID: 0}
  m_PrefabInternal: {fileID: 100100000}
  m_GameObject: {fileID: 1146265781652334}
  m_LocalRotation: {x: 0, y: 0, z: 0, w: 1}
  m_LocalPosition: {x: 0, y: -3.71, z: 0}
  m_LocalScale: {x: 1, y: 1, z: 1}
  m_Children: []
  m_Father: {fileID: 0}
  m_RootOrder: 0
  m_LocalEulerAnglesHint: {x: 0, y: 0, z: 0}
--- !u!23 &23662768120792108
MeshRenderer:
  m_ObjectHideFlags: 1
  m_PrefabParentObject: {fileID: 0}
  m_PrefabInternal: {fileID: 100100000}
  m_GameObject: {fileID: 1146265781652334}
  m_Enabled: 1
  m_CastShadows: 1
  m_ReceiveShadows: 1
  m_DynamicOccludee: 1
  m_MotionVectors: 1
  m_LightProbeUsage: 1
  m_ReflectionProbeUsage: 1
  m_Materials:
  - {fileID: 2100000, guid: 4c4b0ebf5070b9a42a11cbb8fee9d38d, type: 2}
  m_StaticBatchInfo:
    firstSubMesh: 0
    subMeshCount: 0
  m_StaticBatchRoot: {fileID: 0}
  m_ProbeAnchor: {fileID: 0}
  m_LightProbeVolumeOverride: {fileID: 0}
  m_ScaleInLightmap: 1
  m_PreserveUVs: 0
  m_IgnoreNormalsForChartDetection: 0
  m_ImportantGI: 0
  m_StitchLightmapSeams: 0
  m_SelectedEditorRenderState: 3
  m_MinimumChartSize: 4
  m_AutoUVMaxDistance: 0.5
  m_AutoUVMaxAngle: 89
  m_LightmapParameters: {fileID: 0}
  m_SortingLayerID: 0
  m_SortingLayer: 0
  m_SortingOrder: 0
--- !u!33 &33093827512597710
MeshFilter:
  m_ObjectHideFlags: 1
  m_PrefabParentObject: {fileID: 0}
  m_PrefabInternal: {fileID: 100100000}
  m_GameObject: {fileID: 1146265781652334}
  m_Mesh: {fileID: 0}
--- !u!114 &114670960469794244
MonoBehaviour:
  m_ObjectHideFlags: 1
  m_PrefabParentObject: {fileID: 0}
  m_PrefabInternal: {fileID: 100100000}
  m_GameObject: {fileID: 1146265781652334}
  m_Enabled: 1
  m_EditorHideFlags: 0
  m_Script: {fileID: 11500000, guid: 7d308ec24a253f046918f7dc6165e27b, type: 3}
  m_Name: 
  m_EditorClassIdentifier: 
  drawDebugShapes: 1
  size: {x: 18, y: 3}
  segments: 2
  softness: 4
  speedMultiplier: 1
  accelerationMultiplier: 1.5
  waveHeight: 0.46
  randomness: 0.465
  vertexCount: 3
  softVertexCount: 11
  softFacesPerSegment: 5
  softSegments: 10
  lowerLimit: -1
  upperLimit: 1
  vertices:
  - {x: -9, y: 1.5, z: 0}
  - {x: -9, y: -1.5, z: 0}
  - {x: -7.2, y: 1.5, z: 0}
  - {x: -7.2, y: -1.5, z: 0}
  - {x: -5.3999996, y: 1.5, z: 0}
  - {x: -5.3999996, y: -1.5, z: 0}
  - {x: -3.5999997, y: 1.5, z: 0}
  - {x: -3.5999997, y: -1.5, z: 0}
  - {x: -1.7999997, y: 1.5, z: 0}
  - {x: -1.7999997, y: -1.5, z: 0}
  - {x: 0.00000023841858, y: 1.5, z: 0}
  - {x: 0.00000023841858, y: -1.5, z: 0}
  - {x: 1.8000002, y: 1.5, z: 0}
  - {x: 1.8000002, y: -1.5, z: 0}
  - {x: 3.6000001, y: 1.5, z: 0}
  - {x: 3.6000001, y: -1.5, z: 0}
  - {x: 5.4, y: 1.5, z: 0}
  - {x: 5.4, y: -1.5, z: 0}
  - {x: 7.2, y: 1.5, z: 0}
  - {x: 7.2, y: -1.5, z: 0}
  - {x: 9, y: 1.5, z: 0}
  - {x: 9, y: -1.5, z: 0}
  vertexTransforms:
  - position: 1.5
    velocity: -0.49858883
    acceleration: -0.64565885
  - position: 1.5
    velocity: -0.39794874
    acceleration: -1.1494448
  - position: 1.5
    velocity: 0.8664774
    acceleration: -1.2906817
